<svg width="24" height="24" viewBox="0 0 24 24" fill="none" xmlns="http://www.w3.org/2000/svg">
<path fill-rule="evenodd" clip-rule="evenodd" d="M21 7.9125C21 8.12424 20.931 8.37607 20.7411 8.56605L20.7394 8.56771L12.5682 16.6625L12.4426 16.6625C12.4229 16.6719 12.397 16.6836 12.3693 16.6939C12.3195 16.7126 12.2382 16.7375 12.1375 16.7375C12.0857 16.7375 12.0319 16.7309 11.9778 16.7158C11.9235 16.7006 11.8761 16.6788 11.8357 16.6545C11.8253 16.6483 11.8156 16.642 11.8065 16.6358C11.711 16.6075 11.6411 16.5638 11.607 16.541C11.5724 16.5179 11.5445 16.4956 11.525 16.4788C11.515 16.4703 11.5065 16.4626 11.4997 16.4562L11.4906 16.4476L11.487 16.4441L11.4854 16.4425L11.4847 16.4418C11.4846 16.4417 11.484 16.4411 11.791 16.134L11.4839 16.4411L3.53395 8.49105C3.18868 8.14579 3.18868 7.60421 3.53395 7.25895C3.87921 6.91368 4.42079 6.91368 4.76605 7.25895L12.1375 14.6304L19.5089 7.25895C19.8542 6.91368 20.3958 6.91368 20.7411 7.25895C20.931 7.44893 21 7.70076 21 7.9125Z" fill="#344563"/>
</svg>
