<svg width="17" height="16" viewBox="0 0 17 16" xmlns="http://www.w3.org/2000/svg">
<path d="M8.5 16C8.00908 16 7.61111 15.602 7.61111 15.1111C7.61111 14.6202 8.00908 14.2222 8.5 14.2222C11.9364 14.2222 14.7222 11.4364 14.7222 8C14.7222 4.61285 12.0126 1.84955 8.63246 1.77916C8.56635 1.77801 8.54422 1.77778 8.5 1.77778C5.06356 1.77778 2.27778 4.56356 2.27778 8C2.27778 8.49092 1.87981 8.88889 1.38889 8.88889C0.897969 8.88889 0.5 8.49092 0.5 8C0.5 3.58172 4.08172 0 8.5 0C8.55656 0 8.58487 0.000294783 8.66948 0.00176347C13.0163 0.0922946 16.5 3.64495 16.5 8C16.5 12.4183 12.9183 16 8.5 16Z" />
<mask id="mask0" mask-type="alpha" maskUnits="userSpaceOnUse" x="0" y="0" width="17" height="16">
<path d="M8.5 16C8.00908 16 7.61111 15.602 7.61111 15.1111C7.61111 14.6202 8.00908 14.2222 8.5 14.2222C11.9364 14.2222 14.7222 11.4364 14.7222 8C14.7222 4.61285 12.0126 1.84955 8.63246 1.77916C8.56635 1.77801 8.54422 1.77778 8.5 1.77778C5.06356 1.77778 2.27778 4.56356 2.27778 8C2.27778 8.49092 1.87981 8.88889 1.38889 8.88889C0.897969 8.88889 0.5 8.49092 0.5 8C0.5 3.58172 4.08172 0 8.5 0C8.55656 0 8.58487 0.000294783 8.66948 0.00176347C13.0163 0.0922946 16.5 3.64495 16.5 8C16.5 12.4183 12.9183 16 8.5 16Z" />
</mask>
<g mask="url(#mask0)">
<path fill-rule="evenodd" clip-rule="evenodd" d="M0.5 16H16.5V0H0.5V16Z" />
</g>
</svg>
