<svg width="10" height="18" viewBox="0 0 10 18" fill="none" xmlns="http://www.w3.org/2000/svg">
<path fill-rule="evenodd" clip-rule="evenodd" d="M1.0248 0.137451C1.23654 0.137451 1.48837 0.206411 1.67836 0.396398L1.68002 0.398058L9.77481 8.56922V8.69489C9.78417 8.71454 9.79588 8.74048 9.80625 8.76814C9.82493 8.81795 9.8498 8.8993 9.8498 8.99995C9.8498 9.0518 9.84321 9.10557 9.82806 9.15967C9.81287 9.21395 9.79109 9.2613 9.76683 9.30173C9.76059 9.31213 9.7543 9.32189 9.74809 9.33098C9.71977 9.42645 9.67606 9.49634 9.65333 9.53043C9.63023 9.56507 9.60787 9.59296 9.59115 9.61246C9.58257 9.62247 9.57489 9.63096 9.56855 9.63774L9.55995 9.6468L9.55639 9.65045L9.55481 9.65205L9.55406 9.6528C9.55398 9.65288 9.55336 9.6535 9.24626 9.34641L9.55336 9.6535L1.60336 17.6035C1.2581 17.9488 0.716513 17.9488 0.371251 17.6035C0.0259892 17.2582 0.0259892 16.7167 0.371251 16.3714L7.7427 8.99995L0.371251 1.6285C0.0259892 1.28324 0.0259892 0.74166 0.371251 0.396398C0.561238 0.206411 0.813065 0.137451 1.0248 0.137451Z"/>
</svg>
