<svg width="24" height="24" viewBox="0 0 24 24" fill="none" xmlns="http://www.w3.org/2000/svg">
<g clip-path="url(#clip0)">
<path d="M3.47907 0.5H15.7676L20.6362 5.40661C20.6366 5.41048 20.6371 5.41472 20.6375 5.41934C20.6405 5.45179 20.6426 5.49766 20.6426 5.562V23.4547C20.6009 23.4851 20.5552 23.5 20.5205 23.5H3.47907C3.44442 23.5 3.39871 23.4851 3.35693 23.4547V0.825429C3.35693 0.634378 3.40568 0.550191 3.42688 0.524151C3.44171 0.505941 3.45315 0.5 3.47907 0.5Z" fill="#E8EAED" stroke="#E8EAED"/>
<path d="M16.0396 0.0646973V5.14284H21.0783L16.0396 0.0646973Z" fill="#AEB5C1"/>
<path d="M7.96014 5.57138H5.40865C5.17391 5.57138 4.9834 5.37938 4.9834 5.1428C4.9834 4.90623 5.17391 4.71423 5.40865 4.71423H7.96014C8.19488 4.71423 8.38539 4.90623 8.38539 5.1428C8.38539 5.37938 8.19488 5.57138 7.96014 5.57138Z" fill="#97A0AF"/>
<path d="M9.23589 7.71432H5.40865C5.17391 7.71432 4.9834 7.52232 4.9834 7.28575C4.9834 7.04918 5.17391 6.85718 5.40865 6.85718H9.23589C9.47063 6.85718 9.66114 7.04918 9.66114 7.28575C9.66114 7.52232 9.47063 7.71432 9.23589 7.71432Z" fill="#97A0AF"/>
<path d="M10.9365 7.71433C10.8259 7.71433 10.7154 7.66719 10.6346 7.59005C10.558 7.50862 10.5112 7.39719 10.5112 7.28576C10.5112 7.17433 10.558 7.06291 10.6346 6.98148C10.7919 6.82291 11.0811 6.82291 11.2384 6.98148C11.315 7.06291 11.3617 7.17433 11.3617 7.28576C11.3617 7.39719 11.315 7.50862 11.2384 7.59005C11.1576 7.66719 11.047 7.71433 10.9365 7.71433Z" fill="#97A0AF"/>
<path d="M16.0396 7.71432H12.6377C12.4029 7.71432 12.2124 7.52232 12.2124 7.28575C12.2124 7.04918 12.4029 6.85718 12.6377 6.85718H16.0396C16.2744 6.85718 16.4649 7.04918 16.4649 7.28575C16.4649 7.52232 16.2744 7.71432 16.0396 7.71432Z" fill="#97A0AF"/>
<path d="M5.40865 14.1429C5.29808 14.1429 5.18752 14.0958 5.10672 14.0186C5.03018 13.9372 4.9834 13.8258 4.9834 13.7144C4.9834 13.6029 5.03018 13.4915 5.10672 13.4101C5.26406 13.2515 5.55323 13.2515 5.71057 13.4101C5.78712 13.4915 5.8339 13.5986 5.8339 13.7144C5.8339 13.8258 5.78712 13.9372 5.71057 14.0186C5.62978 14.0958 5.51921 14.1429 5.40865 14.1429Z" fill="#97A0AF"/>
<path d="M10.5113 14.1429H7.10933C6.87459 14.1429 6.68408 13.9509 6.68408 13.7143C6.68408 13.4778 6.87459 13.2858 7.10933 13.2858H10.5113C10.7461 13.2858 10.9366 13.4778 10.9366 13.7143C10.9366 13.9509 10.7461 14.1429 10.5113 14.1429Z" fill="#97A0AF"/>
<path d="M18.5912 7.71432H17.7407C17.5059 7.71432 17.3154 7.52232 17.3154 7.28575C17.3154 7.04918 17.5059 6.85718 17.7407 6.85718H18.5912C18.8259 6.85718 19.0164 7.04918 19.0164 7.28575C19.0164 7.52232 18.8259 7.71432 18.5912 7.71432Z" fill="#97A0AF"/>
<path d="M14.7641 9.85714H5.40865C5.17391 9.85714 4.9834 9.66514 4.9834 9.42857C4.9834 9.192 5.17391 9 5.40865 9H14.7641C14.9989 9 15.1894 9.192 15.1894 9.42857C15.1894 9.66514 14.9989 9.85714 14.7641 9.85714Z" fill="#97A0AF"/>
<path d="M18.591 9.85714H16.0395C15.8048 9.85714 15.6143 9.66514 15.6143 9.42857C15.6143 9.192 15.8048 9 16.0395 9H18.591C18.8257 9 19.0163 9.192 19.0163 9.42857C19.0163 9.66514 18.8257 9.85714 18.591 9.85714Z" fill="#97A0AF"/>
<path d="M7.10964 12H5.40865C5.17391 12 4.9834 11.808 4.9834 11.5714C4.9834 11.3348 5.17391 11.1428 5.40865 11.1428H7.10964C7.34438 11.1428 7.53489 11.3348 7.53489 11.5714C7.53489 11.808 7.34438 12 7.10964 12Z" fill="#97A0AF"/>
<path d="M13.063 12H8.8105C8.57577 12 8.38525 11.808 8.38525 11.5714C8.38525 11.3348 8.57577 11.1428 8.8105 11.1428H13.063C13.2977 11.1428 13.4882 11.3348 13.4882 11.5714C13.4882 11.808 13.2977 12 13.063 12Z" fill="#97A0AF"/>
<path d="M18.5914 12H14.7641C14.5294 12 14.3389 11.808 14.3389 11.5714C14.3389 11.3348 14.5294 11.1428 14.7641 11.1428H18.5914C18.8261 11.1428 19.0166 11.3348 19.0166 11.5714C19.0166 11.808 18.8261 12 18.5914 12Z" fill="#97A0AF"/>
<path d="M20.5205 23.9999H3.47907C3.13547 23.9999 2.85693 23.7192 2.85693 23.3729V16.7142H21.1426V23.3729C21.1426 23.7192 20.8641 23.9999 20.5205 23.9999Z" fill="#DA4445"/>
<path d="M6.48486 18.3601H7.88042C8.46168 18.3601 8.91427 18.5315 9.23819 18.8743C9.56211 19.217 9.72407 19.6976 9.72407 20.3161C9.72407 20.9363 9.56211 21.4197 9.23819 21.7661C8.91427 22.1125 8.46168 22.2857 7.88042 22.2857H6.48486V18.3601ZM7.08951 18.8851V21.7579H7.82373C8.23763 21.7579 8.55525 21.6346 8.7766 21.3879C8.99794 21.1395 9.10862 20.784 9.10862 20.3215C9.10862 19.859 8.99794 19.5045 8.7766 19.2578C8.55525 19.0094 8.23763 18.8851 7.82373 18.8851H7.08951Z" fill="white"/>
<path d="M11.9861 18.2948C12.5458 18.2948 12.9894 18.4771 13.3169 18.8416C13.6462 19.2061 13.8109 19.7004 13.8109 20.3242C13.8109 20.9481 13.6471 21.4423 13.3196 21.8069C12.9921 22.1696 12.5476 22.351 11.9861 22.351C11.4246 22.351 10.9802 22.1696 10.6526 21.8069C10.3251 21.4423 10.1614 20.9481 10.1614 20.3242C10.1614 19.7004 10.3251 19.2061 10.6526 18.8416C10.9802 18.4771 11.4246 18.2948 11.9861 18.2948ZM11.9861 18.8307C11.6154 18.8307 11.3212 18.9649 11.1034 19.2333C10.8875 19.5018 10.7795 19.8654 10.7795 20.3242C10.7795 20.7813 10.8875 21.144 11.1034 21.4124C11.3212 21.6808 11.6154 21.815 11.9861 21.815C12.355 21.815 12.6474 21.6808 12.8634 21.4124C13.0811 21.144 13.19 20.7813 13.19 20.3242C13.19 19.8654 13.0811 19.5018 12.8634 19.2333C12.6474 18.9649 12.355 18.8307 11.9861 18.8307Z" fill="white"/>
<path d="M16.0324 22.351C15.4853 22.351 15.0508 22.1687 14.7286 21.8041C14.4083 21.4396 14.2482 20.9454 14.2482 20.3215C14.2482 19.7013 14.4092 19.2089 14.7313 18.8443C15.0535 18.478 15.4871 18.2948 16.0324 18.2948C16.4751 18.2948 16.8485 18.4208 17.1526 18.6729C17.4568 18.9232 17.634 19.2524 17.6844 19.6605H17.0852C17.0312 19.4084 16.9079 19.207 16.7153 19.0565C16.5246 18.9042 16.2969 18.828 16.0324 18.828C15.6779 18.828 15.3945 18.964 15.1821 19.2361C14.9716 19.5063 14.8663 19.8681 14.8663 20.3215C14.8663 20.7804 14.9716 21.1449 15.1821 21.4151C15.3927 21.6835 15.677 21.8177 16.0351 21.8177C16.305 21.8177 16.5318 21.7516 16.7153 21.6192C16.9007 21.4868 17.024 21.3018 17.0852 21.0642H17.6871C17.6133 21.4704 17.4307 21.7869 17.1391 22.0136C16.8494 22.2385 16.4805 22.351 16.0324 22.351Z" fill="white"/>
</g>
<defs>
<clipPath id="clip0">
<rect width="18.2857" height="24" fill="white" transform="translate(2.85693)"/>
</clipPath>
</defs>
</svg>
