<svg width="24" height="24" viewBox="0 0 24 24" fill="none" xmlns="http://www.w3.org/2000/svg">
<path fill-rule="evenodd" clip-rule="evenodd" d="M0 8.25403V20.8082H24V8.25403L12 14.2211L0 8.25403Z" fill="#FCC21B"/>
<path fill-rule="evenodd" clip-rule="evenodd" d="M0 3V6.33754L12 12.3021L24 6.33754V3H0Z" fill="#FCC21B"/>
<path d="M12.0042 5.74651C15.813 5.74651 18.379 8.30033 18.4034 12.1066C18.4059 12.1384 18.4059 12.1823 18.4083 12.2336C18.4107 12.5461 18.357 13.1833 17.9957 13.801C17.9639 13.8596 17.9322 13.9182 17.8931 13.9744C17.4952 14.5457 16.7261 14.9168 15.9277 14.9192H15.9228C15.166 14.9192 14.4726 14.6092 14.0087 14.0696C13.4618 14.7264 12.6244 15.1536 11.5525 15.1561H11.5428C10.3367 15.1561 9.41135 14.6287 8.88154 13.8255C8.58612 13.3762 8.41521 12.8391 8.38591 12.2604C8.38098 12.2036 8.37854 12.1466 8.37859 12.0895C8.37371 10.3927 9.58958 9.01325 11.5403 9.00836H11.5452C12.1702 9.00836 12.7098 9.15974 13.1688 9.40877V9.24031C13.1688 9.16706 13.2274 9.10602 13.3031 9.10602L14.9194 9.10114C14.9926 9.10114 15.0537 9.15974 15.0537 9.23542L15.061 11.3913H15.0708C15.0781 11.6183 15.122 11.9455 15.2002 12.2409C15.2612 12.4777 15.3466 12.695 15.4516 12.822C15.5859 12.9807 15.7983 13.0075 15.918 13.0075H15.9253C16.1328 13.0075 16.2964 12.9172 16.3306 12.8806C16.4844 12.6609 16.5088 12.3557 16.5039 12.2385V12.2189L16.5015 12.1433C16.4966 9.97276 15.3149 7.65577 12.0115 7.65577H11.9945C9.34787 7.66065 7.50209 9.44784 7.50941 12.0017C7.50941 12.0895 7.51674 12.175 7.52162 12.2604C7.55092 12.8293 7.67299 13.3542 7.87564 13.8255C8.5324 15.3563 10.0461 16.3256 11.9969 16.3256H12.0091C13.1005 16.3231 14.0795 16.0228 14.8413 15.4588L15.979 16.9921C14.8876 17.8002 13.518 18.2299 12.014 18.2324H11.9945C8.95234 18.2324 6.59629 16.4623 5.84919 13.8303C5.70758 13.3372 5.62945 12.8122 5.60748 12.2653C5.60504 12.1799 5.59527 12.0944 5.59527 12.0065C5.58795 8.39066 8.2736 5.75628 11.9847 5.74895C11.9896 5.74651 11.9969 5.74651 12.0042 5.74651ZM11.5403 13.5007H11.5452C12.3802 13.4983 12.9173 12.9514 12.993 12.2458C13.0004 12.1896 13.0077 12.1335 13.0077 12.0749C13.0052 11.2936 12.4413 10.6564 11.5403 10.6564H11.5355C10.6345 10.6588 10.073 11.2985 10.0754 12.0822C10.0754 12.1408 10.0852 12.197 10.0925 12.2531C10.1707 12.9563 10.7078 13.5007 11.5403 13.5007ZM12.0042 4.44519H11.9798C9.84593 4.45007 7.89273 5.21182 6.48398 6.59372C5.06547 7.98293 4.28907 9.90684 4.29151 12.009C4.29151 12.0895 4.29639 12.1701 4.30128 12.2507L4.30616 12.3117C4.33302 12.9734 4.42823 13.6008 4.5967 14.1892C5.52203 17.4389 8.42498 19.5386 11.9945 19.5386C13.8012 19.5361 15.437 19.0185 16.753 18.0419C17.0302 17.8362 17.2145 17.5288 17.2653 17.1873C17.3161 16.8458 17.2293 16.4981 17.024 16.2206L16.9287 16.0936C17.7637 15.8739 18.4986 15.388 18.9625 14.7215C19.0211 14.636 19.0724 14.5481 19.1212 14.4602C19.6388 13.574 19.7121 12.6828 19.7096 12.2287C19.7096 12.1652 19.7072 12.114 19.7047 12.0749C19.6608 7.57764 16.499 4.44519 12.0042 4.44519Z" fill="#FCC21B"/>
<path fill-rule="evenodd" clip-rule="evenodd" d="M18.4039 12.1069C18.3794 8.29322 15.8037 5.73697 11.9851 5.74673C8.27405 5.75406 5.58839 8.38844 5.59572 12.0043C5.59572 12.0922 5.60548 12.1777 5.60793 12.2631C5.6299 12.8124 5.70803 13.3349 5.84963 13.8281C6.60162 16.4674 8.96255 18.2375 12.0144 18.2301C13.516 18.2277 14.8881 17.798 15.9794 16.9899L14.8417 15.4566C14.0824 16.0206 13.1009 16.3184 12.0096 16.3233C10.0539 16.3282 8.53529 15.3565 7.86876 13.8232C7.66612 13.352 7.54404 12.8247 7.51474 12.2582C7.50986 12.1728 7.50253 12.0873 7.50253 11.9994C7.49765 9.44561 9.34099 7.66087 11.9876 7.65355C15.3031 7.64622 16.4897 9.96809 16.4946 12.141L16.497 12.2167V12.2363C16.5019 12.3534 16.4775 12.6586 16.3237 12.8784C16.2895 12.915 16.1259 13.0053 15.9184 13.0053C15.8012 13.0053 15.5815 12.9809 15.4448 12.8198C15.3373 12.6928 15.2543 12.4731 15.1933 12.2387C15.1151 11.9433 15.0688 11.6161 15.0639 11.3891H15.0541L15.0468 9.2332C15.0468 9.15996 14.9857 9.09892 14.9125 9.09892L13.2962 9.1038C13.223 9.1038 13.1619 9.16484 13.1619 9.23809V9.40655C12.7029 9.15752 12.1609 9.0037 11.5335 9.00614C9.58514 9.01102 8.36927 10.3905 8.37171 12.0873C8.37171 12.1459 8.37659 12.2021 8.37903 12.2582C8.40833 12.8393 8.57924 13.374 8.87466 13.8232C9.40691 14.6289 10.3347 15.1587 11.5457 15.1539C12.6175 15.1514 13.4549 14.7241 14.0018 14.0674C14.4657 14.607 15.1615 14.9195 15.9208 14.917C16.7192 14.9146 17.4883 14.5459 17.8863 13.9722C17.9253 13.916 17.9571 13.8574 17.9888 13.7988C18.3501 13.1811 18.4039 12.5414 18.4014 12.2314C18.4063 12.1825 18.4039 12.1386 18.4039 12.1069ZM12.9935 12.246C12.9178 12.9516 12.3807 13.4985 11.5457 13.501C10.7107 13.5034 10.1711 12.9565 10.093 12.2533C10.0856 12.1972 10.0759 12.141 10.0759 12.0824C10.0734 11.2987 10.6374 10.659 11.5359 10.6566C12.4393 10.6542 13.0057 11.2914 13.0081 12.0751C13.0081 12.1337 12.9984 12.1899 12.9935 12.246Z" fill="#ED6C30"/>
</svg>
