<svg width="32" height="32" viewBox="0 0 32 32" fill="none" xmlns="http://www.w3.org/2000/svg">
<path d="M0 26.8176V8.04477C0 7.63349 0.163381 7.23905 0.454201 6.94823C0.745022 6.65741 1.13946 6.49403 1.55074 6.49403H3.03234C3.32873 6.49392 3.61888 6.40894 3.86849 6.24913C4.11809 6.08931 4.31671 5.86136 4.44085 5.59223L4.75989 4.90081C4.8839 4.63187 5.08238 4.40409 5.33183 4.24444C5.58128 4.08479 5.87125 3.99997 6.16741 4H13.206C13.4757 4.00001 13.7407 4.07035 13.9749 4.20408C14.2091 4.3378 14.4043 4.53028 14.5414 4.76253L14.8871 5.34727C15.0236 5.58064 15.2187 5.77426 15.4532 5.90889C15.6876 6.04353 15.9532 6.11449 16.2235 6.11474H25.1951C25.3988 6.11474 25.6006 6.15488 25.7888 6.23288C25.977 6.31087 26.148 6.42519 26.292 6.56929C26.436 6.71339 26.5502 6.88446 26.6281 7.07272C26.706 7.26098 26.746 7.46274 26.7459 7.66647V26.8176H0Z" fill="#A5ADBA"/>
<g opacity="0.3">
<path opacity="0.3" d="M0 26.8176V8.04477C0 7.63349 0.163381 7.23905 0.454201 6.94823C0.745022 6.65741 1.13946 6.49403 1.55074 6.49403H3.03234C3.32873 6.49392 3.61888 6.40894 3.86849 6.24913C4.11809 6.08931 4.31671 5.86136 4.44085 5.59223L4.75989 4.90081C4.8839 4.63187 5.08238 4.40409 5.33183 4.24444C5.58128 4.08479 5.87125 3.99997 6.16741 4H13.206C13.4757 4.00001 13.7407 4.07035 13.9749 4.20408C14.2091 4.3378 14.4043 4.53028 14.5414 4.76253L14.8871 5.34727C15.0236 5.58064 15.2187 5.77426 15.4532 5.90889C15.6876 6.04353 15.9532 6.11449 16.2235 6.11474H25.1951C25.3988 6.11474 25.6006 6.15488 25.7888 6.23288C25.977 6.31087 26.148 6.42519 26.292 6.56929C26.436 6.71339 26.5502 6.88446 26.6281 7.07272C26.706 7.26098 26.746 7.46274 26.7459 7.66647V26.8176H0Z" fill="black"/>
</g>
<path d="M0 26.4065L2.74294 8.80014C2.80374 8.51681 2.95988 8.2629 3.1853 8.08081C3.41072 7.89871 3.69178 7.79944 3.98156 7.79956H27.0116C27.2212 7.79946 27.4276 7.85146 27.6122 7.95088C27.7968 8.0503 27.9537 8.19403 28.069 8.36914C28.1843 8.54426 28.2542 8.74527 28.2726 8.95412C28.2909 9.16297 28.2571 9.3731 28.1741 9.56563L23.2019 25.9679L0 26.4065Z" fill="#EBEBEB"/>
<path d="M0 26.4067L3.46695 10.2079C3.52752 9.92452 3.68343 9.67051 3.90866 9.48824C4.1339 9.30597 4.41483 9.20645 4.70458 9.2063H27.7395C27.9492 9.20638 28.1556 9.25853 28.3401 9.35807C28.5247 9.45761 28.6816 9.60142 28.7969 9.7766C28.9121 9.95177 28.9821 10.1528 29.0005 10.3617C29.0188 10.5706 28.985 10.7808 28.9021 10.9734L22.3455 26.1924L0 26.4067Z" fill="#FAFAFA"/>
<path d="M0 26.8176L5.58465 11.0139C5.69836 10.6927 5.90881 10.4146 6.18704 10.2179C6.46528 10.0212 6.79762 9.91559 7.13835 9.91553H30.8815C31.0591 9.91562 31.2341 9.95799 31.3921 10.0391C31.5501 10.1202 31.6865 10.2378 31.7901 10.3821C31.8936 10.5264 31.9614 10.6932 31.9877 10.8689C32.014 11.0445 31.9981 11.2239 31.9413 11.3922L26.7459 26.8176H0Z" fill="#A5ADBA"/>
</svg>
