<svg width="24" height="24" viewBox="0 0 24 24" fill="none" xmlns="http://www.w3.org/2000/svg">
<path fill-rule="evenodd" clip-rule="evenodd" d="M12.75 2.75C12.75 2.55109 12.671 2.36032 12.5303 2.21967C12.3897 2.07902 12.1989 2 12 2C11.8011 2 11.6103 2.07902 11.4697 2.21967C11.329 2.36032 11.25 2.55109 11.25 2.75V4.5H9.27599C8.92468 4.49984 8.58146 4.60542 8.29099 4.803L6.59599 5.957C6.55438 5.98518 6.50524 6.00016 6.45499 6H2.35299C2.15407 6 1.96331 6.07902 1.82266 6.21967C1.682 6.36032 1.60299 6.55109 1.60299 6.75C1.60299 6.94891 1.682 7.13968 1.82266 7.28033C1.96331 7.42098 2.15407 7.5 2.35299 7.5H3.92999V12.18L0.562986 14.18C0.499387 14.3299 0.485463 14.4962 0.523254 14.6545C0.561045 14.8129 0.648564 14.955 0.772986 15.06C0.852986 15.124 0.933986 15.185 1.08199 15.281C1.26799 15.402 1.53399 15.559 1.87399 15.714C2.55399 16.025 3.53599 16.334 4.74999 16.334C5.74201 16.3359 6.72285 16.1245 7.62599 15.714C7.96599 15.559 8.23199 15.402 8.41799 15.281C8.56799 15.184 8.64799 15.123 8.72799 15.058C8.8534 14.9542 8.94163 14.8124 8.97933 14.654C9.01704 14.4956 9.00217 14.3292 8.93699 14.18L5.56899 12.18V7.5H6.45499C6.80599 7.5 7.14899 7.394 7.43899 7.197L9.13499 6.043C9.17631 6.01501 9.22507 6.00004 9.27499 6H11V20H6.76299C6.56407 20 6.37331 20.079 6.23266 20.2197C6.092 20.3603 6.01299 20.8011 6.01299 21C6.01299 21.1989 6.092 21.6397 6.23266 21.7803C6.37331 21.921 6.56407 22 6.76299 22H17.237C17.4359 22 17.6267 21.921 17.7673 21.7803C17.908 21.6397 17.987 21.1989 17.987 21C17.987 20.8011 17.908 20.3603 17.7673 20.2197C17.6267 20.079 17.4359 20 17.237 20H13V6H14.724C14.774 6 14.824 6.015 14.864 6.043L16.561 7.197C16.851 7.394 17.194 7.5 17.545 7.5H18.431V12.174L15.063 14.174C14.9956 14.3276 14.9817 14.5053 15.0234 14.6677C15.0651 14.8301 15.16 14.9739 15.293 15.076L15.2984 15.08L15.295 15.076C15.3942 15.1507 15.4977 15.2195 15.605 15.282C15.79 15.394 16.055 15.538 16.395 15.682C17.2992 16.06 18.27 16.2531 19.25 16.25C20.2304 16.2529 21.2015 16.0594 22.106 15.681C22.444 15.538 22.71 15.394 22.896 15.282C23.0029 15.2189 23.1064 15.1501 23.206 15.076C23.339 14.9739 23.4339 14.8301 23.4756 14.6677C23.5173 14.5053 23.5033 14.3276 23.436 14.174L20.07 12.174V7.5H21.648C21.8469 7.5 22.0377 7.42098 22.1783 7.28033C22.319 7.13968 22.398 6.94891 22.398 6.75C22.398 6.55109 22.319 6.36032 22.1783 6.21967C22.0377 6.07902 21.8469 6 21.648 6H17.546C17.4961 5.99996 17.4473 5.98499 17.406 5.957L15.709 4.803C15.4188 4.60561 15.0759 4.50004 14.725 4.5H12.75V2.75Z"/>
</svg>
