<svg width="20" height="24" viewBox="0 0 20 24" fill="none" xmlns="http://www.w3.org/2000/svg">
<g clip-path="url(#clip0)">
<g clip-path="url(#clip1)">
<path d="M1.49481 23.5H1.48178L1.46877 23.5007C1.43921 23.5022 1.4096 23.4942 1.38429 23.4772C1.37424 23.4704 1.36505 23.4624 1.35693 23.4532V0.827143C1.35693 0.634074 1.40618 0.551842 1.42652 0.527356C1.44017 0.510929 1.45492 0.5 1.49481 0.5H13.7674L18.6194 5.41516C18.6198 5.41884 18.6202 5.42283 18.6206 5.42716C18.6235 5.45987 18.6256 5.50618 18.6256 5.57143V23.4528C18.618 23.4614 18.6094 23.469 18.6 23.4755C18.5754 23.4925 18.5466 23.5009 18.5176 23.5002L18.5176 23.5H18.5048H1.49481ZM1.32095 23.5714L1.10545 23.8922L1.32095 23.5714Z" fill="#E8EAED" stroke="#E8EAED"/>
<path d="M14.0396 0.0643311V5.1429H19.0788L14.0396 0.0643311Z" fill="#AEB5C1"/>
<path d="M6.38948 14.28C6.23601 14.2822 6.08625 14.2324 5.96423 14.1386C5.80563 14.0377 5.67767 13.8948 5.5944 13.7254C5.51113 13.5561 5.47577 13.3669 5.49221 13.1786C5.56875 12.48 6.4235 11.7514 8.0437 11.0057C8.70957 9.51884 9.24874 7.97757 9.6554 6.39858C9.23015 5.46858 8.8049 4.25572 9.11958 3.55287C9.15567 3.43499 9.21759 3.32679 9.30077 3.23629C9.38395 3.14578 9.48625 3.07529 9.60011 3.03001C9.73899 2.99099 9.8815 2.96658 10.0254 2.95715C10.238 2.95715 10.4294 3.23572 10.5612 3.38572C10.693 3.53572 10.9864 3.88715 10.4038 6.30001C10.9683 7.47856 11.6972 8.56962 12.5684 9.54001C13.0447 9.46053 13.5271 9.42325 14.0099 9.42858C14.6776 9.42858 15.0773 9.58287 15.2432 9.90858C15.3081 10.0624 15.327 10.2319 15.2975 10.3964C15.268 10.5609 15.1915 10.7131 15.0773 10.8343C14.974 10.9913 14.8337 11.1201 14.669 11.2091C14.5042 11.298 14.3202 11.3445 14.1333 11.3443C13.6145 11.3443 13.0149 11.0143 12.343 10.3672C11.0557 10.6454 9.79813 11.0487 8.58802 11.5714C8.3031 12.2067 7.96448 12.8161 7.57593 13.3929C7.13792 13.9929 6.7637 14.28 6.38948 14.28ZM7.52065 12.0814C6.61061 12.5957 6.2449 13.02 6.21513 13.2557C6.21513 13.2943 6.21513 13.3972 6.39799 13.5514C6.46178 13.5386 6.836 13.3672 7.5249 12.0857L7.52065 12.0814ZM13.321 10.1786C13.6655 10.4486 13.7463 10.5814 13.9802 10.5814C14.0744 10.5902 14.1694 10.5778 14.2584 10.5452C14.3474 10.5126 14.4281 10.4606 14.4947 10.3929C14.5362 10.3382 14.5692 10.2775 14.5925 10.2129C14.5415 10.1829 14.4692 10.1272 14.095 10.1272C13.8361 10.1295 13.5776 10.1481 13.321 10.1829V10.1786ZM10.1444 7.35858C9.82657 8.45919 9.4475 9.5409 9.00902 10.5986C9.91002 10.25 10.8335 9.9636 11.7731 9.74144C11.1536 9.00319 10.6081 8.20502 10.1444 7.35858ZM9.88503 3.73287C9.72102 3.92724 9.63455 4.1761 9.64241 4.43113C9.65027 4.68615 9.7519 4.92913 9.92756 5.11287C10.3315 4.2043 9.90629 3.72858 9.88928 3.73287H9.88503Z" fill="#97A0AF"/>
<path d="M18.5048 23.9999H1.49481C1.41185 24.0022 1.32929 23.9877 1.25199 23.9573C1.17469 23.9269 1.10422 23.8812 1.04475 23.8229C0.985286 23.7645 0.938027 23.6948 0.905767 23.6177C0.873507 23.5407 0.856902 23.4579 0.856934 23.3742V16.7142H19.1426V23.3742C19.1427 23.4579 19.1261 23.5407 19.0938 23.6177C19.0616 23.6948 19.0143 23.7645 18.9548 23.8229C18.8954 23.8812 18.8249 23.9269 18.7476 23.9573C18.6703 23.9877 18.5877 24.0022 18.5048 23.9999Z" fill="#DA4445"/>
</g>
<path d="M5.30029 18.3601H6.82542C7.20332 18.3601 7.51195 18.4798 7.75129 18.7192C7.99063 18.9586 8.1103 19.2687 8.1103 19.6496C8.1103 20.0323 7.98883 20.3442 7.74589 20.5854C7.50295 20.8248 7.18983 20.9445 6.80652 20.9445H5.90494V22.2857H5.30029V18.3601ZM5.90494 18.8743V20.4331H6.66616C6.92889 20.4331 7.13224 20.3651 7.27621 20.229C7.42017 20.0912 7.49215 19.899 7.49215 19.6523C7.49215 19.4038 7.42017 19.2125 7.27621 19.0783C7.13224 18.9423 6.92889 18.8743 6.66616 18.8743H5.90494Z" fill="white"/>
<path d="M8.64207 18.3601H10.0376C10.6189 18.3601 11.0715 18.5315 11.3954 18.8743C11.7193 19.217 11.8813 19.6976 11.8813 20.3161C11.8813 20.9363 11.7193 21.4197 11.3954 21.7661C11.0715 22.1125 10.6189 22.2857 10.0376 22.2857H8.64207V18.3601ZM9.24672 18.8851V21.7579H9.98094C10.3948 21.7579 10.7125 21.6346 10.9338 21.3879C11.1552 21.1395 11.2658 20.784 11.2658 20.3215C11.2658 19.8591 11.1552 19.5045 10.9338 19.2578C10.7125 19.0094 10.3948 18.8851 9.98094 18.8851H9.24672Z" fill="white"/>
<path d="M13.0636 22.2857H12.4589V18.3601H14.891V18.8851H13.0636V20.1284H14.7372V20.6425H13.0636V22.2857Z" fill="white"/>
</g>
<defs>
<clipPath id="clip0">
<rect width="18.2857" height="24" fill="white" transform="translate(0.856934)"/>
</clipPath>
<clipPath id="clip1">
<rect width="18.2857" height="24" fill="white" transform="translate(0.856934)"/>
</clipPath>
</defs>
</svg>
